Marisol’s website - Analysis Walkthrough
…
This data includes records of individual airline flights departing at New York’s three metro airports, JFK, LaGuardia (LGA) and Newark (EWR). 4) Using the flights dataset, create a function that filters the data frame to only include records from a single originating airport (column name origin). In other words, it should let you enter an origin airport and return all the records from just that airport.

Code

filter_airport <- function(airport){
  result <- filter(flights, origin == airport)
  return(result)
}

#example
filter_airport("EWR")

# A tibble: 120,835 × 19
    year month   day dep_time sched_de…¹ dep_d…² arr_t…³ sched…⁴ arr_d…⁵ carrier
   <int> <int> <int>    <int>      <int>   <dbl>   <int>   <int>   <dbl> <chr>  
 1  2013     1     1      517        515       2     830     819      11 UA     
 2  2013     1     1      554        558      -4     740     728      12 UA     
 3  2013     1     1      555        600      -5     913     854      19 B6     
 4  2013     1     1      558        600      -2     923     937     -14 UA     
 5  2013     1     1      559        600      -1     854     902      -8 UA     
 6  2013     1     1      601        600       1     844     850      -6 B6     
 7  2013     1     1      606        610      -4     858     910     -12 AA     
 8  2013     1     1      607        607       0     858     915     -17 UA     
 9  2013     1     1      608        600       8     807     735      32 MQ     
10  2013     1     1      615        615       0     833     842      -9 DL     
# … with 120,825 more rows, 9 more variables: flight <int>, tailnum <chr>,
#   origin <chr>, dest <chr>, air_time <dbl>, distance <dbl>, hour <dbl>,
#   minute <dbl>, time_hour <dttm>, and abbreviated variable names
#   ¹​sched_dep_time, ²​dep_delay, ³​arr_time, ⁴​sched_arr_time, ⁵​arr_delay
…
